{
	"compiler": {
		"version": "0.8.6+commit.11564f7e"
	},
	"language": "Solidity",
	"output": {
		"abi": [
			{
				"inputs": [],
				"name": "count",
				"outputs": [
					{
						"internalType": "int256",
						"name": "",
						"type": "int256"
					}
				],
				"stateMutability": "view",
				"type": "function"
			},
			{
				"inputs": [],
				"name": "read",
				"outputs": [
					{
						"internalType": "string[]",
						"name": "",
						"type": "string[]"
					}
				],
				"stateMutability": "view",
				"type": "function"
			},
			{
				"inputs": [
					{
						"internalType": "uint256",
						"name": "",
						"type": "uint256"
					}
				],
				"name": "value",
				"outputs": [
					{
						"internalType": "string",
						"name": "",
						"type": "string"
					}
				],
				"stateMutability": "view",
				"type": "function"
			},
			{
				"inputs": [
					{
						"internalType": "string",
						"name": "newValue",
						"type": "string"
					}
				],
				"name": "write",
				"outputs": [],
				"stateMutability": "nonpayable",
				"type": "function"
			}
		],
		"devdoc": {
			"kind": "dev",
			"methods": {},
			"version": 1
		},
		"userdoc": {
			"kind": "user",
			"methods": {},
			"version": 1
		}
	},
	"settings": {
		"compilationTarget": {
			"DFS-v2.0 - test\\dfs\\contracts\\SimpleStorage.sol": "SimpleStorage"
		},
		"evmVersion": "berlin",
		"libraries": {},
		"metadata": {
			"bytecodeHash": "ipfs"
		},
		"optimizer": {
			"enabled": false,
			"runs": 200
		},
		"remappings": []
	},
	"sources": {
		"DFS-v2.0 - test\\dfs\\contracts\\SimpleStorage.sol": {
			"keccak256": "0xeb88292d973202955346f5f557513c12b1a67677f1840e5913e9004e1d75ffd5",
			"license": "MIT",
			"urls": [
				"bzz-raw://4d67ce590908288da6b1cf6e86d99dbe054b9f36f892830fddb9ca2f28cdece7",
				"dweb:/ipfs/QmQyW8ugrha2xdNHuu468X8SQUcN1EfMAPe5cVBkc9SkFa"
			]
		}
	},
	"version": 1
}